-------------------------------------------------------------------------------
Test set: com.htc.service.UserServiceTest
-------------------------------------------------------------------------------
Tests run: 2, Failures: 0, Errors: 0, Skipped: 0, Time elapsed: 2.343 sec
